<svg width="51" height="51" viewBox="0 0 51 51" fill="none" xmlns="http://www.w3.org/2000/svg">
    <path d="M39.8438 31.875C39.8438 40.6775 34.3025 46.2187 25.5 46.2187C16.6975 46.2187 11.1562 40.6775 11.1562 31.875C11.1562 22.429 21.4389 9.67704 24.5926 5.98851C24.7048 5.85746 24.844 5.75225 25.0008 5.68012C25.1575 5.60799 25.328 5.57064 25.5005 5.57064C25.673 5.57064 25.8435 5.60799 26.0002 5.68012C26.157 5.75225 26.2962 5.85746 26.4084 5.98851C29.5611 9.67704 39.8438 22.429 39.8438 31.875Z" stroke="#FB7181" stroke-miterlimit="10"/>
    <path d="M34.2656 32.6719C34.2656 34.574 33.51 36.3982 32.165 37.7432C30.82 39.0881 28.9958 39.8438 27.0938 39.8438" stroke="#FB7181" stroke-linecap="round" stroke-linejoin="round"/>
</svg>
